2021-12-21 22:50:38,846 ERROR: Exception on / [POST] [in /home/alunpg/microblog/venv/lib/python3.9/site-packages/flask/app.py:1457]
Traceback (most recent call last):
  File "/home/alunpg/microblog/venv/lib/python3.9/site-packages/flask/app.py", line 2073, in wsgi_app
    response = self.full_dispatch_request()
  File "/home/alunpg/microblog/venv/lib/python3.9/site-packages/flask/app.py", line 1518, in full_dispatch_request
    rv = self.handle_user_exception(e)
  File "/home/alunpg/microblog/venv/lib/python3.9/site-packages/flask/app.py", line 1516, in full_dispatch_request
    rv = self.dispatch_request()
  File "/home/alunpg/microblog/venv/lib/python3.9/site-packages/flask/app.py", line 1502, in dispatch_request
    return self.ensure_sync(self.view_functions[rule.endpoint])(**req.view_args)
  File "/home/alunpg/microblog/venv/lib/python3.9/site-packages/flask_login/utils.py", line 272, in decorated_view
    return func(*args, **kwargs)
  File "/home/alunpg/microblog/app/main/routes.py", line 32, in index
    post = Post(body=form.post.data, author=current_user,
  File "<string>", line 4, in __init__
  File "/home/alunpg/microblog/venv/lib/python3.9/site-packages/sqlalchemy/orm/state.py", line 480, in _initialize_instance
    manager.dispatch.init_failure(self, args, kwargs)
  File "/home/alunpg/microblog/venv/lib/python3.9/site-packages/sqlalchemy/util/langhelpers.py", line 70, in __exit__
    compat.raise_(
  File "/home/alunpg/microblog/venv/lib/python3.9/site-packages/sqlalchemy/util/compat.py", line 207, in raise_
    raise exception
  File "/home/alunpg/microblog/venv/lib/python3.9/site-packages/sqlalchemy/orm/state.py", line 477, in _initialize_instance
    return manager.original_init(*mixed[1:], **kwargs)
  File "/home/alunpg/microblog/venv/lib/python3.9/site-packages/sqlalchemy/orm/decl_base.py", line 1154, in _declarative_constructor
    raise TypeError(
TypeError: 'language' is an invalid keyword argument for Post
2021-12-21 22:53:32,933 INFO: Microblog startup [in /home/alunpg/microblog/app/__init__.py:81]
2021-12-27 13:57:45,280 INFO: Microblog startup [in /home/alunpg/microblog/app/__init__.py:81]
2021-12-27 14:01:55,485 INFO: Microblog startup [in /home/alunpg/microblog/app/__init__.py:81]
2021-12-27 14:56:38,331 INFO: Microblog startup [in /home/alunpg/microblog/app/__init__.py:81]
2022-01-05 21:30:47,616 INFO: Microblog startup [in /home/alunpg/microblog/app/__init__.py:81]
2022-01-05 21:31:00,475 ERROR: Exception on / [GET] [in /home/alunpg/microblog/venv/lib/python3.9/site-packages/flask/app.py:1457]
Traceback (most recent call last):
  File "/home/alunpg/microblog/venv/lib/python3.9/site-packages/sqlalchemy/engine/base.py", line 1802, in _execute_context
    self.dialect.do_execute(
  File "/home/alunpg/microblog/venv/lib/python3.9/site-packages/sqlalchemy/engine/default.py", line 719, in do_execute
    cursor.execute(statement, parameters)
sqlite3.OperationalError: no such column: user.last_message_read_time

The above exception was the direct cause of the following exception:

Traceback (most recent call last):
  File "/home/alunpg/microblog/venv/lib/python3.9/site-packages/flask/app.py", line 2073, in wsgi_app
    response = self.full_dispatch_request()
  File "/home/alunpg/microblog/venv/lib/python3.9/site-packages/flask/app.py", line 1518, in full_dispatch_request
    rv = self.handle_user_exception(e)
  File "/home/alunpg/microblog/venv/lib/python3.9/site-packages/flask/app.py", line 1514, in full_dispatch_request
    rv = self.preprocess_request()
  File "/home/alunpg/microblog/venv/lib/python3.9/site-packages/flask/app.py", line 1857, in preprocess_request
    rv = self.ensure_sync(before_func)()
  File "/home/alunpg/microblog/app/main/routes.py", line 17, in before_request
    if current_user.is_authenticated:
  File "/home/alunpg/microblog/venv/lib/python3.9/site-packages/werkzeug/local.py", line 432, in __get__
    obj = instance._get_current_object()
  File "/home/alunpg/microblog/venv/lib/python3.9/site-packages/werkzeug/local.py", line 554, in _get_current_object
    return self.__local()  # type: ignore
  File "/home/alunpg/microblog/venv/lib/python3.9/site-packages/flask_login/utils.py", line 26, in <lambda>
    current_user = LocalProxy(lambda: _get_user())
  File "/home/alunpg/microblog/venv/lib/python3.9/site-packages/flask_login/utils.py", line 346, in _get_user
    current_app.login_manager._load_user()
  File "/home/alunpg/microblog/venv/lib/python3.9/site-packages/flask_login/login_manager.py", line 318, in _load_user
    user = self._user_callback(user_id)
  File "/home/alunpg/microblog/app/models.py", line 101, in load_user
    return User.query.get(int(id))
  File "<string>", line 2, in get
  File "/home/alunpg/microblog/venv/lib/python3.9/site-packages/sqlalchemy/util/deprecations.py", line 401, in warned
    return fn(*args, **kwargs)
  File "/home/alunpg/microblog/venv/lib/python3.9/site-packages/sqlalchemy/orm/query.py", line 943, in get
    return self._get_impl(ident, loading.load_on_pk_identity)
  File "/home/alunpg/microblog/venv/lib/python3.9/site-packages/sqlalchemy/orm/query.py", line 947, in _get_impl
    return self.session._get_impl(
  File "/home/alunpg/microblog/venv/lib/python3.9/site-packages/sqlalchemy/orm/session.py", line 2874, in _get_impl
    return db_load_fn(
  File "/home/alunpg/microblog/venv/lib/python3.9/site-packages/sqlalchemy/orm/loading.py", line 530, in load_on_pk_identity
    session.execute(
  File "/home/alunpg/microblog/venv/lib/python3.9/site-packages/sqlalchemy/orm/session.py", line 1689, in execute
    result = conn._execute_20(statement, params or {}, execution_options)
  File "/home/alunpg/microblog/venv/lib/python3.9/site-packages/sqlalchemy/engine/base.py", line 1614, in _execute_20
    return meth(self, args_10style, kwargs_10style, execution_options)
  File "/home/alunpg/microblog/venv/lib/python3.9/site-packages/sqlalchemy/sql/elements.py", line 325, in _execute_on_connection
    return connection._execute_clauseelement(
  File "/home/alunpg/microblog/venv/lib/python3.9/site-packages/sqlalchemy/engine/base.py", line 1481, in _execute_clauseelement
    ret = self._execute_context(
  File "/home/alunpg/microblog/venv/lib/python3.9/site-packages/sqlalchemy/engine/base.py", line 1845, in _execute_context
    self._handle_dbapi_exception(
  File "/home/alunpg/microblog/venv/lib/python3.9/site-packages/sqlalchemy/engine/base.py", line 2026, in _handle_dbapi_exception
    util.raise_(
  File "/home/alunpg/microblog/venv/lib/python3.9/site-packages/sqlalchemy/util/compat.py", line 207, in raise_
    raise exception
  File "/home/alunpg/microblog/venv/lib/python3.9/site-packages/sqlalchemy/engine/base.py", line 1802, in _execute_context
    self.dialect.do_execute(
  File "/home/alunpg/microblog/venv/lib/python3.9/site-packages/sqlalchemy/engine/default.py", line 719, in do_execute
    cursor.execute(statement, parameters)
sqlalchemy.exc.OperationalError: (sqlite3.OperationalError) no such column: user.last_message_read_time
[SQL: SELECT user.id AS user_id, user.username AS user_username, user.email AS user_email, user.password_hash AS user_password_hash, user.about_me AS user_about_me, user.last_seen AS user_last_seen, user.last_message_read_time AS user_last_message_read_time 
FROM user 
WHERE user.id = ?]
[parameters: (2,)]
(Background on this error at: https://sqlalche.me/e/14/e3q8)
2022-01-05 21:31:41,940 INFO: Microblog startup [in /home/alunpg/microblog/app/__init__.py:81]
2022-01-05 21:31:50,018 INFO: Microblog startup [in /home/alunpg/microblog/app/__init__.py:81]
