2021-12-11 20:27:12,390 ERROR: Exception on /user/susan [GET] [in /home/alunpg/microblog/venv/lib/python3.9/site-packages/flask/app.py:1457]
Traceback (most recent call last):
  File "/home/alunpg/microblog/venv/lib/python3.9/site-packages/flask/app.py", line 2073, in wsgi_app
    response = self.full_dispatch_request()
  File "/home/alunpg/microblog/venv/lib/python3.9/site-packages/flask/app.py", line 1518, in full_dispatch_request
    rv = self.handle_user_exception(e)
  File "/home/alunpg/microblog/venv/lib/python3.9/site-packages/flask/app.py", line 1516, in full_dispatch_request
    rv = self.dispatch_request()
  File "/home/alunpg/microblog/venv/lib/python3.9/site-packages/flask/app.py", line 1502, in dispatch_request
    return self.ensure_sync(self.view_functions[rule.endpoint])(**req.view_args)
  File "/home/alunpg/microblog/venv/lib/python3.9/site-packages/flask_login/utils.py", line 272, in decorated_view
    return func(*args, **kwargs)
  File "/home/alunpg/microblog/app/routes.py", line 86, in user
    return render_template('user.html', user=user, posts=posts)
  File "/home/alunpg/microblog/venv/lib/python3.9/site-packages/flask/templating.py", line 147, in render_template
    return _render(
  File "/home/alunpg/microblog/venv/lib/python3.9/site-packages/flask/templating.py", line 128, in _render
    rv = template.render(context)
  File "/home/alunpg/microblog/venv/lib/python3.9/site-packages/jinja2/environment.py", line 1291, in render
    self.environment.handle_exception()
  File "/home/alunpg/microblog/venv/lib/python3.9/site-packages/jinja2/environment.py", line 925, in handle_exception
    raise rewrite_traceback_stack(source=source)
  File "/home/alunpg/microblog/app/templates/user.html", line 1, in top-level template code
    {% extends "base.html" %}
  File "/home/alunpg/microblog/app/templates/base.html", line 32, in top-level template code
    {% block content %}{% endblock %}
  File "/home/alunpg/microblog/app/templates/user.html", line 24, in block 'content'
    {% include "_post.html" %}
  File "/home/alunpg/microblog/app/templates/_post.html", line 3, in top-level template code
    <td><img src="{{ user.author.avatar(36) }}"></td>
  File "/home/alunpg/microblog/venv/lib/python3.9/site-packages/jinja2/environment.py", line 474, in getattr
    return getattr(obj, attribute)
jinja2.exceptions.UndefinedError: 'app.models.User object' has no attribute 'author'
2021-12-11 20:27:28,261 ERROR: Exception on /index [GET] [in /home/alunpg/microblog/venv/lib/python3.9/site-packages/flask/app.py:1457]
Traceback (most recent call last):
  File "/home/alunpg/microblog/venv/lib/python3.9/site-packages/flask/app.py", line 2073, in wsgi_app
    response = self.full_dispatch_request()
  File "/home/alunpg/microblog/venv/lib/python3.9/site-packages/flask/app.py", line 1518, in full_dispatch_request
    rv = self.handle_user_exception(e)
  File "/home/alunpg/microblog/venv/lib/python3.9/site-packages/flask/app.py", line 1516, in full_dispatch_request
    rv = self.dispatch_request()
  File "/home/alunpg/microblog/venv/lib/python3.9/site-packages/flask/app.py", line 1502, in dispatch_request
    return self.ensure_sync(self.view_functions[rule.endpoint])(**req.view_args)
  File "/home/alunpg/microblog/venv/lib/python3.9/site-packages/flask_login/utils.py", line 272, in decorated_view
    return func(*args, **kwargs)
  File "/home/alunpg/microblog/app/routes.py", line 29, in index
    return render_template('index.html', title='Home', form=form, posts=posts)
  File "/home/alunpg/microblog/venv/lib/python3.9/site-packages/flask/templating.py", line 147, in render_template
    return _render(
  File "/home/alunpg/microblog/venv/lib/python3.9/site-packages/flask/templating.py", line 128, in _render
    rv = template.render(context)
  File "/home/alunpg/microblog/venv/lib/python3.9/site-packages/jinja2/environment.py", line 1291, in render
    self.environment.handle_exception()
  File "/home/alunpg/microblog/venv/lib/python3.9/site-packages/jinja2/environment.py", line 925, in handle_exception
    raise rewrite_traceback_stack(source=source)
  File "/home/alunpg/microblog/app/templates/index.html", line 1, in top-level template code
    {% extends "base.html" %}
  File "/home/alunpg/microblog/app/templates/base.html", line 32, in top-level template code
    {% block content %}{% endblock %}
  File "/home/alunpg/microblog/app/templates/index.html", line 19, in block 'content'
    {% include '_post.html' %}
  File "/home/alunpg/microblog/app/templates/_post.html", line 3, in top-level template code
    <td><img src="{{ user.author.avatar(36) }}"></td>
  File "/home/alunpg/microblog/venv/lib/python3.9/site-packages/jinja2/environment.py", line 474, in getattr
    return getattr(obj, attribute)
jinja2.exceptions.UndefinedError: 'user' is undefined
2021-12-11 20:39:38,224 INFO: Microblog startup [in /home/alunpg/microblog/app/__init__.py:43]
2021-12-11 20:43:47,393 INFO: Microblog startup [in /home/alunpg/microblog/app/__init__.py:43]
2021-12-12 13:01:07,215 INFO: Microblog startup [in /home/alunpg/microblog/app/__init__.py:43]
2021-12-12 13:23:02,701 INFO: Microblog startup [in /home/alunpg/microblog/app/__init__.py:43]
2021-12-12 13:40:37,782 INFO: Microblog startup [in /home/alunpg/microblog/app/__init__.py:43]
2021-12-12 17:28:21,714 INFO: Microblog startup [in /home/alunpg/microblog/app/__init__.py:45]
2021-12-12 19:20:55,947 INFO: Microblog startup [in /home/alunpg/microblog/app/__init__.py:45]
2021-12-12 19:29:41,115 INFO: Microblog startup [in /home/alunpg/microblog/app/__init__.py:45]
2021-12-15 13:00:30,373 INFO: Microblog startup [in /home/alunpg/microblog/app/__init__.py:47]
2021-12-15 13:00:38,925 ERROR: Exception on /login [GET] [in /home/alunpg/microblog/venv/lib/python3.9/site-packages/flask/app.py:1457]
Traceback (most recent call last):
  File "/home/alunpg/microblog/venv/lib/python3.9/site-packages/flask/app.py", line 2073, in wsgi_app
    response = self.full_dispatch_request()
  File "/home/alunpg/microblog/venv/lib/python3.9/site-packages/flask/app.py", line 1518, in full_dispatch_request
    rv = self.handle_user_exception(e)
  File "/home/alunpg/microblog/venv/lib/python3.9/site-packages/flask/app.py", line 1516, in full_dispatch_request
    rv = self.dispatch_request()
  File "/home/alunpg/microblog/venv/lib/python3.9/site-packages/flask/app.py", line 1502, in dispatch_request
    return self.ensure_sync(self.view_functions[rule.endpoint])(**req.view_args)
  File "/home/alunpg/microblog/app/routes.py", line 71, in login
    return render_template('login.html', title='Sign In', form=form)
  File "/home/alunpg/microblog/venv/lib/python3.9/site-packages/flask/templating.py", line 147, in render_template
    return _render(
  File "/home/alunpg/microblog/venv/lib/python3.9/site-packages/flask/templating.py", line 128, in _render
    rv = template.render(context)
  File "/home/alunpg/microblog/venv/lib/python3.9/site-packages/jinja2/environment.py", line 1291, in render
    self.environment.handle_exception()
  File "/home/alunpg/microblog/venv/lib/python3.9/site-packages/jinja2/environment.py", line 925, in handle_exception
    raise rewrite_traceback_stack(source=source)
  File "/home/alunpg/microblog/app/templates/login.html", line 1, in top-level template code
    {% extends "base.html" %}
  File "/home/alunpg/microblog/venv/lib/python3.9/site-packages/jinja2/environment.py", line 925, in handle_exception
    raise rewrite_traceback_stack(source=source)
  File "/home/alunpg/microblog/app/templates/base.html", line 46, in template
    {% block app_content %}{% endblock %}
jinja2.exceptions.TemplateAssertionError: block 'app_content' defined twice
