2021-12-15 13:00:39,241 ERROR: Exception on /favicon.ico [GET] [in /home/alunpg/microblog/venv/lib/python3.9/site-packages/flask/app.py:1457]
Traceback (most recent call last):
  File "/home/alunpg/microblog/venv/lib/python3.9/site-packages/flask/app.py", line 1516, in full_dispatch_request
    rv = self.dispatch_request()
  File "/home/alunpg/microblog/venv/lib/python3.9/site-packages/flask/app.py", line 1492, in dispatch_request
    self.raise_routing_exception(req)
  File "/home/alunpg/microblog/venv/lib/python3.9/site-packages/flask/app.py", line 1474, in raise_routing_exception
    raise request.routing_exception  # type: ignore
  File "/home/alunpg/microblog/venv/lib/python3.9/site-packages/flask/ctx.py", line 367, in match_request
    result = self.url_adapter.match(return_rule=True)  # type: ignore
  File "/home/alunpg/microblog/venv/lib/python3.9/site-packages/werkzeug/routing.py", line 2041, in match
    raise NotFound()
werkzeug.exceptions.NotFound: 404 Not Found: The requested URL was not found on the server. If you entered the URL manually please check your spelling and try again.

During handling of the above exception, another exception occurred:

Traceback (most recent call last):
  File "/home/alunpg/microblog/venv/lib/python3.9/site-packages/flask/app.py", line 2073, in wsgi_app
    response = self.full_dispatch_request()
  File "/home/alunpg/microblog/venv/lib/python3.9/site-packages/flask/app.py", line 1518, in full_dispatch_request
    rv = self.handle_user_exception(e)
  File "/home/alunpg/microblog/venv/lib/python3.9/site-packages/flask/app.py", line 1386, in handle_user_exception
    return self.handle_http_exception(e)
  File "/home/alunpg/microblog/venv/lib/python3.9/site-packages/flask/app.py", line 1326, in handle_http_exception
    return self.ensure_sync(handler)(e)
  File "/home/alunpg/microblog/app/errors.py", line 7, in not_found_error
    return render_template('404.html'), 404
  File "/home/alunpg/microblog/venv/lib/python3.9/site-packages/flask/templating.py", line 147, in render_template
    return _render(
  File "/home/alunpg/microblog/venv/lib/python3.9/site-packages/flask/templating.py", line 128, in _render
    rv = template.render(context)
  File "/home/alunpg/microblog/venv/lib/python3.9/site-packages/jinja2/environment.py", line 1291, in render
    self.environment.handle_exception()
  File "/home/alunpg/microblog/venv/lib/python3.9/site-packages/jinja2/environment.py", line 925, in handle_exception
    raise rewrite_traceback_stack(source=source)
  File "/home/alunpg/microblog/app/templates/404.html", line 1, in top-level template code
    {% extends "base.html" %}
  File "/home/alunpg/microblog/venv/lib/python3.9/site-packages/jinja2/environment.py", line 925, in handle_exception
    raise rewrite_traceback_stack(source=source)
  File "/home/alunpg/microblog/app/templates/base.html", line 46, in template
    {% block app_content %}{% endblock %}
jinja2.exceptions.TemplateAssertionError: block 'app_content' defined twice
2021-12-15 13:01:47,770 INFO: Microblog startup [in /home/alunpg/microblog/app/__init__.py:47]
2021-12-15 13:01:51,764 ERROR: Exception on /login [GET] [in /home/alunpg/microblog/venv/lib/python3.9/site-packages/flask/app.py:1457]
Traceback (most recent call last):
  File "/home/alunpg/microblog/venv/lib/python3.9/site-packages/flask/app.py", line 2073, in wsgi_app
    response = self.full_dispatch_request()
  File "/home/alunpg/microblog/venv/lib/python3.9/site-packages/flask/app.py", line 1518, in full_dispatch_request
    rv = self.handle_user_exception(e)
  File "/home/alunpg/microblog/venv/lib/python3.9/site-packages/flask/app.py", line 1516, in full_dispatch_request
    rv = self.dispatch_request()
  File "/home/alunpg/microblog/venv/lib/python3.9/site-packages/flask/app.py", line 1502, in dispatch_request
    return self.ensure_sync(self.view_functions[rule.endpoint])(**req.view_args)
  File "/home/alunpg/microblog/app/routes.py", line 71, in login
    return render_template('login.html', title='Sign In', form=form)
  File "/home/alunpg/microblog/venv/lib/python3.9/site-packages/flask/templating.py", line 147, in render_template
    return _render(
  File "/home/alunpg/microblog/venv/lib/python3.9/site-packages/flask/templating.py", line 128, in _render
    rv = template.render(context)
  File "/home/alunpg/microblog/venv/lib/python3.9/site-packages/jinja2/environment.py", line 1291, in render
    self.environment.handle_exception()
  File "/home/alunpg/microblog/venv/lib/python3.9/site-packages/jinja2/environment.py", line 925, in handle_exception
    raise rewrite_traceback_stack(source=source)
  File "/home/alunpg/microblog/app/templates/login.html", line 1, in top-level template code
    {% extends "base.html" %}
  File "/home/alunpg/microblog/venv/lib/python3.9/site-packages/jinja2/environment.py", line 925, in handle_exception
    raise rewrite_traceback_stack(source=source)
  File "/home/alunpg/microblog/app/templates/base.html", line 46, in template
    {% block app_content %}{% endblock %}
jinja2.exceptions.TemplateAssertionError: block 'app_content' defined twice
2021-12-15 13:03:36,630 INFO: Microblog startup [in /home/alunpg/microblog/app/__init__.py:47]
2021-12-15 13:12:33,467 INFO: Microblog startup [in /home/alunpg/microblog/app/__init__.py:47]
2021-12-15 13:42:24,165 INFO: Microblog startup [in /home/alunpg/microblog/app/__init__.py:49]
2021-12-17 14:07:42,432 INFO: Microblog startup [in /home/alunpg/microblog/app/__init__.py:51]
2021-12-17 14:11:28,942 INFO: Microblog startup [in /home/alunpg/microblog/app/__init__.py:53]
2021-12-17 14:32:28,229 INFO: Microblog startup [in /home/alunpg/microblog/app/__init__.py:54]
2021-12-17 14:33:05,585 INFO: Microblog startup [in /home/alunpg/microblog/app/__init__.py:54]
2021-12-17 14:33:38,435 INFO: Microblog startup [in /home/alunpg/microblog/app/__init__.py:54]
2021-12-17 14:37:52,445 INFO: Microblog startup [in /home/alunpg/microblog/app/__init__.py:54]
2021-12-17 14:38:27,071 INFO: Microblog startup [in /home/alunpg/microblog/app/__init__.py:54]
2021-12-17 14:39:31,825 INFO: Microblog startup [in /home/alunpg/microblog/app/__init__.py:54]
2021-12-17 14:39:46,736 ERROR: Exception on / [GET] [in /home/alunpg/microblog/venv/lib/python3.9/site-packages/flask/app.py:1457]
Traceback (most recent call last):
  File "/home/alunpg/microblog/venv/lib/python3.9/site-packages/flask/app.py", line 2073, in wsgi_app
    response = self.full_dispatch_request()
  File "/home/alunpg/microblog/venv/lib/python3.9/site-packages/flask/app.py", line 1518, in full_dispatch_request
    rv = self.handle_user_exception(e)
  File "/home/alunpg/microblog/venv/lib/python3.9/site-packages/flask/app.py", line 1514, in full_dispatch_request
    rv = self.preprocess_request()
  File "/home/alunpg/microblog/venv/lib/python3.9/site-packages/flask/app.py", line 1857, in preprocess_request
    rv = self.ensure_sync(before_func)()
  File "/home/alunpg/microblog/app/routes.py", line 18, in before_request
    g.locale = str(get_locale())
NameError: name 'g' is not defined
2021-12-17 14:41:45,566 INFO: Microblog startup [in /home/alunpg/microblog/app/__init__.py:54]
2021-12-17 14:42:01,422 ERROR: Exception on / [GET] [in /home/alunpg/microblog/venv/lib/python3.9/site-packages/flask/app.py:1457]
Traceback (most recent call last):
  File "/home/alunpg/microblog/venv/lib/python3.9/site-packages/flask/app.py", line 2073, in wsgi_app
    response = self.full_dispatch_request()
  File "/home/alunpg/microblog/venv/lib/python3.9/site-packages/flask/app.py", line 1518, in full_dispatch_request
    rv = self.handle_user_exception(e)
  File "/home/alunpg/microblog/venv/lib/python3.9/site-packages/flask/app.py", line 1514, in full_dispatch_request
    rv = self.preprocess_request()
  File "/home/alunpg/microblog/venv/lib/python3.9/site-packages/flask/app.py", line 1857, in preprocess_request
    rv = self.ensure_sync(before_func)()
  File "/home/alunpg/microblog/app/routes.py", line 18, in before_request
    g.locale = str(get_locale())
NameError: name 'g' is not defined
2021-12-17 14:44:58,932 ERROR: Exception on /index [GET] [in /home/alunpg/microblog/venv/lib/python3.9/site-packages/flask/app.py:1457]
Traceback (most recent call last):
  File "/home/alunpg/microblog/venv/lib/python3.9/site-packages/flask/app.py", line 2073, in wsgi_app
    response = self.full_dispatch_request()
  File "/home/alunpg/microblog/venv/lib/python3.9/site-packages/flask/app.py", line 1518, in full_dispatch_request
    rv = self.handle_user_exception(e)
  File "/home/alunpg/microblog/venv/lib/python3.9/site-packages/flask/app.py", line 1514, in full_dispatch_request
    rv = self.preprocess_request()
  File "/home/alunpg/microblog/venv/lib/python3.9/site-packages/flask/app.py", line 1857, in preprocess_request
    rv = self.ensure_sync(before_func)()
  File "/home/alunpg/microblog/app/routes.py", line 18, in before_request
    g.locale = str(get_locale())
NameError: name 'g' is not defined
2021-12-17 14:45:13,152 INFO: Microblog startup [in /home/alunpg/microblog/app/__init__.py:54]
2021-12-17 16:48:35,094 INFO: Microblog startup [in /home/alunpg/microblog/app/__init__.py:54]
2021-12-17 16:49:44,433 INFO: Microblog startup [in /home/alunpg/microblog/app/__init__.py:54]
2021-12-17 22:33:14,434 INFO: Microblog startup [in /home/alunpg/microblog/app/__init__.py:54]
2021-12-18 11:52:21,325 INFO: Microblog startup [in /home/alunpg/microblog/app/__init__.py:54]
